WOZ uitrollen

- In config opnemen:

 woz_info_on_pip         = 1
    <woz_info>
        username            = "xxxxx"
        password            = "xxxxx"
        key                 = "xxxxx"
        private_key         = absoluut pad naar .pem bestand
    </woz_info>
    
 
- Rechten toevoegen aan users om woz tab te zien.

- Tabel woz_objects moet aangemaakt zijn

- PDF/OpenOffice upgrade uitvoeren, zie GitHub #305

- Mappen verwijderen, zie GitHub #475