"Soort","Omschrijving Vastgoedobjectsoort","Code","Code G/O"
"1100","Normale woningen","10","G"
"1111","Vrijstaande woning","10","G"
"1112","Vrijstaande semi-bungalow","10","G"
"1113","Vrijstaande bungalow","10","G"
"1114","Vrijstaande villa/landhuis","10","G"
"1115","Vrijstaande woonboerderij","10","G"
"1116","Vrijstaand  herenhuis","10","G"
"1117","Vrijstaande kwadrant-woning","10","G"
"1118","Vrijstaande drive-in-woning","10","G"
"1119","Vrijstaande patio-woning","10","G"
"1121","2^1 kap woning","10","G"
"1122","2^1 kap semi-bungalow","10","G"
"1123","2^1 kap bungalow","10","G"
"1124","2^1 kap villa/landhuis","10","G"
"1125","2^1 kap woonboerderij","10","G"
"1126","2^1 kap herenhuis","10","G"
"1127","2^1 kap kwadrant-woning","10","G"
"1128","2^1 kap drive-in-woning","10","G"
"1129","2^1 kap patio-woning","10","G"
"1131","Rijwoning","10","G"
"1132","Rij semi-bungalow","10","G"
"1133","Rij bungalow","10","G"
"1134","Rij villa/landhuis","10","G"
"1135","Rij woonboerderij","10","G"
"1136","Rij herenhuis","10","G"
"1137","Rij kwadrant-woning","10","G"
"1138","Rij drive-in-woning","10","G"
"1139","Rij patio-woning","10","G"
"1141","Hoekwoning","10","G"
"1142","Hoek semi-bungalow","10","G"
"1143","Hoek bungalow","10","G"
"1144","Hoek villa/landhuis","10","G"
"1145","Hoek woonboerderij","10","G"
"1146","Hoek herenhuis","10","G"
"1147","Hoek kwadrant-woning","10","G"
"1148","Hoek drive-in-woning","10","G"
"1149","Hoek patio-woning","10","G"
"1151","Tussenwoning","10","G"
"1152","Tussen semi-bungalow","10","G"
"1153","Tussen bungalow","10","G"
"1154","Tussen villa/landhuis","10","G"
"1155","Tussen woonboerderij","10","G"
"1156","Tussen herenhuis","10","G"
"1157","Tussen kwadrant-woning","10","G"
"1158","Tussen drive-in-woning","10","G"
"1159","Tussen patio-woning","10","G"
"1161","Eindwoning","10","G"
"1162","Eind semi-bungalow","10","G"
"1163","Eind bungalow","10","G"
"1164","Eind villa/landhuis","10","G"
"1165","Eind woonboerderij","10","G"
"1166","Eind herenhuis","10","G"
"1167","Eind kwadrant-woning","10","G"
"1168","Eind drive-in-woning","10","G"
"1169","Eind patio-woning","10","G"
"1171","Geschakelde woning","10","G"
"1172","Geschakelde semi-bungalow","10","G"
"1173","Geschakelde bungalow","10","G"
"1174","Geschakelde villa/landhuis","10","G"
"1175","Geschakelde woonboerderij","10","G"
"1176","Geschakeld  herenhuis","10","G"
"1177","Geschakelde kwadrant-woning","10","G"
"1178","Geschakelde drive-in-woning","10","G"
"1179","Geschakelde patio-woning","10","G"
"1181","Flatwoning","10","G"
"1182","Maisonnette","10","G"
"1183","Appartement","10","G"
"1184","Portiekwoning","10","G"
"1185","Duplex-woning","10","G"
"1186","Penthouse","10","G"
"1187","Benedenwoning","10","G"
"1188","Bovenwoning","10","G"
"1189","Etagewoning","10","G"
"1191","Woonwagen/-boot","10","G"
"1192","Woonwagen/-boot semi-bungalow","10","G"
"1193","Woonwagen/-boot bungalow","10","G"
"1194","Woonwagen/-boot villa/landhuis","10","G"
"1195","Woonwagen/-boot woonboerderij","10","G"
"1196","Woonwagen/-boot herenhuis","10","G"
"1197","Woonwagen/-boot kwadrant","10","G"
"1198","Woonwagen/-boot drive-in","10","G"
"1199","Woonwagen/-boot patio","10","G"
"1200","Recreatiewoningen","12","G"
"1211","Vrijstaande recreatiewoning","12","G"
"1212","Vrijst. recr. semi-bungalow","12","G"
"1213","Vrijst. recr. bungalow","12","G"
"1214","Vrijst. recr. villa/landhuis","12","G"
"1215","Vrijst. recr. woonboerderij","12","G"
"1216","Vrijst. recr. herenhuis","12","G"
"1217","Vrijst. recr. kwadrant-woning","12","G"
"1218","Vrijst. recr. drive-in-woning","12","G"
"1219","Vrijst. recr. patio-woning","12","G"
"1221","2^1 kap recreatiewoning","12","G"
"1222","2^1 kap recr. semi-bungalow","12","G"
"1223","2^1 kap recr. bungalow","12","G"
"1224","2^1 kap recr. villa/landhuis","12","G"
"1225","2^1 kap recr. woonboerderij","12","G"
"1226","2^1 kap recr. herenhuis","12","G"
"1227","2^1 kap recr. kwadrant-woning","12","G"
"1228","2^1 kap recr. drive-in-woning","12","G"
"1229","2^1 kap recr. patio-woning","12","G"
"1231","Rij recreatiewoning","12","G"
"1232","Rij recr. semi-bungalow","12","G"
"1233","Rij recr. bungalow","12","G"
"1234","Rij recr. villa/landhuis","12","G"
"1235","Rij recr. woonboerderij","12","G"
"1236","Rij recr. herenhuis","12","G"
"1237","Rij recr. kwadrant-woning","12","G"
"1238","Rij recr. drive-in-woning","12","G"
"1239","Rij recr. patio-woning","12","G"
"1241","Hoek recreatiewoning","12","G"
"1242","Hoek recr. semi-bungalow","12","G"
"1243","Hoek recr. bungalow","12","G"
"1244","Hoek recr. villa/landhuis","12","G"
"1245","Hoek recr. woonboerderij","12","G"
"1246","Hoek recr. herenhuis","12","G"
"1247","Hoek recr. kwadrant-woning","12","G"
"1248","Hoek recr. drive-in-woning","12","G"
"1249","Hoek recr. patio-woning","12","G"
"1251","Tussen recreatiewoning","12","G"
"1252","Tussen recr. semi-bungalow","12","G"
"1253","Tussen recr. bungalow","12","G"
"1254","Tussen recr. villa/landhuis","12","G"
"1255","Tussen recr. woonboerderij","12","G"
"1256","Tussen recr. herenhuis","12","G"
"1257","Tussen recr. kwadrant-woning","12","G"
"1258","Tussen recr. drive-in-woning","12","G"
"1259","Tussen recr. patio-woning","12","G"
"1261","Eind recreatiewoning","12","G"
"1262","Eind recr. semi-bungalow","12","G"
"1263","Eind recr. bungalow","12","G"
"1264","Eind recr. villa/landhuis","12","G"
"1265","Eind recr. woonboerderij","12","G"
"1266","Eind recr. herenhuis","12","G"
"1267","Eind recr. kwadrant-woning","12","G"
"1268","Eind recr. drive-in-woning","12","G"
"1269","Eind recr. patio-woning","12","G"
"1271","Geschakelde recreatiewoning","12","G"
"1272","Gesch. recr. semi-bungalow","12","G"
"1273","Gesch. recr. bungalow","12","G"
"1274","Gesch. recr. villa/landhuis","12","G"
"1275","Gesch. recr. woonboerderij","12","G"
"1276","Gesch. recr. herenhuis","12","G"
"1277","Gesch. recr. kwadrant-woning","12","G"
"1278","Gesch. recr. drive-in-woning","12","G"
"1279","Gesch. recr. patio-woning","12","G"
"1281","Recreatie flatwoning","12","G"
"1282","Recreatie maisonnette","12","G"
"1283","Recreatie appartement","12","G"
"1284","Recreatie portiekwoning","12","G"
"1285","Recreatie duplex-woning","12","G"
"1286","Recreatie penthouse","12","G"
"1287","Recreatie benedenwoning","12","G"
"1288","Recreatie bovenwoning","12","G"
"1289","Recreatie etagewoning","12","G"
"1291","Woonwagen/-boot recreatie","12","G"
"1292","Wnwgn/-boot recr.semi-bungalow","12","G"
"1293","Wnwgn/-boot recr.bungalow","12","G"
"1294","Wnwgn/-boot rec.villa/landhuis","12","G"
"1295","Wnwgn/-boot recr.woonboerderij","12","G"
"1296","Wnwgn/-boot recr.herenhuis","12","G"
"1297","Wnwgn/-boot recr.kwadrant","12","G"
"1298","Wnwgn/-boot recr.drive-in","12","G"
"1299","Wnwgn/-boot recr.patio","12","G"
"1300","Bejaarden-/aanleunwoningen","10","G"
"1311","Vrijstaande bejaardenwoning","10","G"
"1312","Vrijst. bejrd. semi-bungalow","10","G"
"1313","Vrijst. bejrd. bungalow","10","G"
"1314","Vrijst. bejrd. villa/landhuis","10","G"
"1315","Vrijst. bejrd. woonboerderij","10","G"
"1316","Vrijst. bejrd. herenhuis","10","G"
"1317","Vrijst. bejrd. kwadrant-woning","10","G"
"1318","Vrijst. bejrd. drive-in-woning","10","G"
"1319","Vrijst. bejrd. patio-woning","10","G"
"1321","2^1 kap bejaardenwoning","10","G"
"1322","2^1 kap bejrd. semi-bungalow","10","G"
"1323","2^1 kap bejrd. bungalow","10","G"
"1324","2^1 kap bejrd. villa/landhuis","10","G"
"1325","2^1 kap bejrd. woonboerderij","10","G"
"1326","2^1 kap bejrd. herenhuis","10","G"
"1327","2^1 kap bejrd. kwadrant-woning","10","G"
"1328","2^1 kap bejrd. drive-in-woning","10","G"
"1329","2^1 kap bejrd. patio-woning","10","G"
"1331","Rij bejaardenwoning","10","G"
"1332","Rij bejrd. semi-bungalow","10","G"
"1333","Rij bejrd. bungalow","10","G"
"1334","Rij bejrd. villa/landhuis","10","G"
"1335","Rij bejrd. woonboerderij","10","G"
"1336","Rij bejrd. herenhuis","10","G"
"1337","Rij bejrd. kwadrant-woning","10","G"
"1338","Rij bejrd. drive-in-woning","10","G"
"1339","Rij bejrd. patio-woning","10","G"
"1341","Hoek bejaardenwoning","10","G"
"1342","Hoek bejrd. semi-bungalow","10","G"
"1343","Hoek bejrd. bungalow","10","G"
"1344","Hoek bejrd. villa/landhuis","10","G"
"1345","Hoek bejrd. woonboerderij","10","G"
"1346","Hoek bejrd. herenhuis","10","G"
"1347","Hoek bejrd. kwadrant-woning","10","G"
"1348","Hoek bejrd. drive-in-woning","10","G"
"1349","Hoek bejrd. patio-woning","10","G"
"1351","Tussen bejaardenwoning","10","G"
"1352","Tussen bejrd. semi-bungalow","10","G"
"1353","Tussen bejrd. bungalow","10","G"
"1354","Tussen bejrd. villa/landhuis","10","G"
"1355","Tussen bejrd. woonboerderij","10","G"
"1356","Tussen bejrd. herenhuis","10","G"
"1357","Tussen bejrd. kwadrant-woning","10","G"
"1358","Tussen bejrd. drive-in-woning","10","G"
"1359","Tussen bejrd. patio-woning","10","G"
"1361","Eind bejaardenwoning","10","G"
"1362","Eind bejrd. semi-bungalow","10","G"
"1363","Eind bejrd. bungalow","10","G"
"1364","Eind bejrd. villa/landhuis","10","G"
"1365","Eind bejrd. woonboerderij","10","G"
"1366","Eind bejrd. herenhuis","10","G"
"1367","Eind bejrd. kwadrant-woning","10","G"
"1368","Eind bejrd. drive-in-woning","10","G"
"1369","Eind bejrd. patio-woning","10","G"
"1371","Geschakelde bejaardenwoning","10","G"
"1372","Gesch. bejrd. semi-bungalow","10","G"
"1373","Gesch. bejrd. bungalow","10","G"
"1374","Gesch. bejrd. villa/landhuis","10","G"
"1375","Gesch. bejrd. woonboerderij","10","G"
"1376","Gesch. bejrd. herenhuis","10","G"
"1377","Gesch. bejrd. kwadrant-woning","10","G"
"1378","Gesch. bejrd. drive-in-woning","10","G"
"1379","Gesch. bejrd. patio-woning","10","G"
"1381","Bejaarden Flatwoning","10","G"
"1382","Bejaarden Maisonnette","10","G"
"1383","Bejaarden Appartement","10","G"
"1384","Bejaarden Portiekwoning","10","G"
"1385","Bejaarden Duplex-woning","10","G"
"1386","Bejaarden Penthouse","10","G"
"1387","Bejaarden Benedenwoning","10","G"
"1388","Bejaarden Bovenwoning","10","G"
"1389","Bejaarden Etagewoning","10","G"
"1391","Woonwagen/-boot bejaarden","10","G"
"1392","Wnwgn/-bt bejrd. semi-bungalow","10","G"
"1393","Wnwgn/-bt bejrd. bungalow","10","G"
"1394","Wnwgn/-bt bejrd.villa/landhuis","10","G"
"1395","Wnwgn/-bt bejrd. woonboerderij","10","G"
"1396","Wnwgn/-bt bejrd. herenhuis","10","G"
"1397","Wnwgn/-bt bejrd. kwadrant","10","G"
"1398","Wnwgn/-bt bejrd. drive-in","10","G"
"1399","Wnwgn/-bt bejrd. patio","10","G"
"1400","Studentenwoningen/kamerverhuur","10","G"
"1411","Vrijstaande studentenwoning","10","G"
"1412","Vrijst. stud. semi-bungalow","10","G"
"1413","Vrijst. stud. bungalow","10","G"
"1414","Vrijst. stud. villa/landhuis","10","G"
"1415","Vrijst. stud. woonboerderij","10","G"
"1416","Vrijst. stud. herenhuis","10","G"
"1417","Vrijst. stud. kwadrant-woning","10","G"
"1418","Vrijst. stud. drive-in-woning","10","G"
"1419","Vrijst. stud. patio-woning","10","G"
"1421","2^1 kap studentenwoning","10","G"
"1422","2^1 kap stud. semi-bungalow","10","G"
"1423","2^1 kap stud. bungalow","10","G"
"1424","2^1 kap stud. villa/landhuis","10","G"
"1425","2^1 kap stud. woonboerderij","10","G"
"1426","2^1 kap stud. herenhuis","10","G"
"1427","2^1 kap stud. kwadrant-woning","10","G"
"1428","2^1 kap stud. drive-in-woning","10","G"
"1429","2^1 kap stud. patio-woning","10","G"
"1431","Rij studentenwoning","10","G"
"1432","Rij stud. semi-bungalow","10","G"
"1433","Rij stud. bungalow","10","G"
"1434","Rij stud. villa/landhuis","10","G"
"1435","Rij stud. woonboerderij","10","G"
"1436","Rij stud. herenhuis","10","G"
"1437","Rij stud. kwadrant-woning","10","G"
"1438","Rij stud. drive-in-woning","10","G"
"1439","Rij stud. patio-woning","10","G"
"1441","Hoek studentenwoning","10","G"
"1442","Hoek stud. semi-bungalow","10","G"
"1443","Hoek stud. bungalow","10","G"
"1444","Hoek stud. villa/landhuis","10","G"
"1445","Hoek stud. woonboerderij","10","G"
"1446","Hoek stud. herenhuis","10","G"
"1447","Hoek stud. kwadrant-woning","10","G"
"1448","Hoek stud. drive-in-woning","10","G"
"1449","Hoek stud. patio-woning","10","G"
"1451","Tussen studentenwoning","10","G"
"1452","Tussen stud. semi-bungalow","10","G"
"1453","Tussen stud. bungalow","10","G"
"1454","Tussen stud. villa/landhuis","10","G"
"1455","Tussen stud. woonboerderij","10","G"
"1456","Tussen stud. herenhuis","10","G"
"1457","Tussen stud. kwadrant-woning","10","G"
"1458","Tussen stud. drive-in-woning","10","G"
"1459","Tussen stud. patio-woning","10","G"
"1461","Eind studentenwoning","10","G"
"1462","Eind stud. semi-bungalow","10","G"
"1463","Eind stud. bungalow","10","G"
"1464","Eind stud. villa/landhuis","10","G"
"1465","Eind stud. woonboerderij","10","G"
"1466","Eind stud. herenhuis","10","G"
"1467","Eind stud. kwadrant-woning","10","G"
"1468","Eind stud. drive-in-woning","10","G"
"1469","Eind stud. patio-woning","10","G"
"1471","Geschakelde studentenwoning","10","G"
"1472","Gesch. stud. semi-bungalow","10","G"
"1473","Gesch. stud. bungalow","10","G"
"1474","Gesch. stud. villa/landhuis","10","G"
"1475","Gesch. stud. woonboerderij","10","G"
"1476","Gesch. stud. herenhuis","10","G"
"1477","Gesch. stud. kwadrant-woning","10","G"
"1478","Gesch. stud. drive-in-woning","10","G"
"1479","Gesch. stud. patio-woning","10","G"
"1481","Studenten Flatwoning","10","G"
"1482","Studenten Maisonnette","10","G"
"1483","Studenten Appartement","10","G"
"1484","Studenten Portiekwoning","10","G"
"1485","Studenten Duplex-woning","10","G"
"1486","Studenten Penthouse","10","G"
"1487","Studenten Benedenwoning","10","G"
"1488","Studenten Bovenwoning","10","G"
"1489","Studenten Etagewoning","10","G"
"1491","Woonwagen/-boot studenten","10","G"
"1492","Wnwgn/-bt stud. semi-bungalow","10","G"
"1493","Wnwgn/-bt stud. bungalow","10","G"
"1494","Wnwgn/-bt stud. villa/landhuis","10","G"
"1495","Wnwgn/-bt stud. woonboerderij","10","G"
"1496","Wnwgn/-bt stud. herenhuis","10","G"
"1497","Wnwgn/-bt stud. kwadrant","10","G"
"1498","Wnwgn/-bt stud. drive-in","10","G"
"1499","Wnwgn/-bt stud. patio","10","G"
"1500","Bedrijfswoningen","11","G"
"1511","Vrijstaande bedrijfswoning","11","G"
"1512","Vrijst. bedr. semi-bungalow","11","G"
"1513","Vrijst. bedr. bungalow","11","G"
"1514","Vrijst. bedr. villa/landhuis","11","G"
"1515","Vrijst. bedr. woonboerderij","11","G"
"1516","Vrijst. bedr. herenhuis","11","G"
"1517","Vrijst. bedr. kwadrant-woning","11","G"
"1518","Vrijst. bedr. drive-in-woning","11","G"
"1519","Vrijst. bedr. patio-woning","11","G"
"1521","2^1 kap bedrijfswoning","11","G"
"1522","2^1 kap bedr. semi-bungalow","11","G"
"1523","2^1 kap bedr. bungalow","11","G"
"1524","2^1 kap bedr. villa/landhuis","11","G"
"1525","2^1 kap bedr. woonboerderij","11","G"
"1526","2^1 kap bedr. herenhuis","11","G"
"1527","2^1 kap bedr. kwadrant-woning","11","G"
"1528","2^1 kap bedr. drive-in-woning","11","G"
"1529","2^1 kap bedr. patio-woning","11","G"
"1531","Rij bedrijfswoning","11","G"
"1532","Rij bedr. semi-bungalow","11","G"
"1533","Rij bedr. bungalow","11","G"
"1534","Rij bedr. villa/landhuis","11","G"
"1535","Rij bedr. woonboerderij","11","G"
"1536","Rij bedr. herenhuis","11","G"
"1537","Rij bedr. kwadrant-woning","11","G"
"1538","Rij bedr. drive-in-woning","11","G"
"1539","Rij bedr. patio-woning","11","G"
"1541","Hoek bedrijfswoning","11","G"
"1542","Hoek bedr. semi-bungalow","11","G"
"1543","Hoek bedr. bungalow","11","G"
"1544","Hoek bedr. villa/landhuis","11","G"
"1545","Hoek bedr. woonboerderij","11","G"
"1546","Hoek bedr. herenhuis","11","G"
"1547","Hoek bedr. kwadrant-woning","11","G"
"1548","Hoek bedr. drive-in-woning","11","G"
"1549","Hoek bedr. patio-woning","11","G"
"1551","Tussen bedrijfswoning","11","G"
"1552","Tussen bedr. semi-bungalow","11","G"
"1553","Tussen bedr. bungalow","11","G"
"1554","Tussen bedr. villa/landhuis","11","G"
"1555","Tussen bedr. woonboerderij","11","G"
"1556","Tussen bedr. herenhuis","11","G"
"1557","Tussen bedr. kwadrant-woning","11","G"
"1558","Tussen bedr. drive-in-woning","11","G"
"1559","Tussen bedr. patio-woning","11","G"
"1561","Eind bedrijfswoning","11","G"
"1562","Eind bedr. semi-bungalow","11","G"
"1563","Eind bedr. bungalow","11","G"
"1564","Eind bedr. villa/landhuis","11","G"
"1565","Eind bedr. woonboerderij","11","G"
"1566","Eind bedr. herenhuis","11","G"
"1567","Eind bedr. kwadrant-woning","11","G"
"1568","Eind bedr. drive-in-woning","11","G"
"1569","Eind bedr. patio-woning","11","G"
"1571","Geschakelde bedrijfswoning","11","G"
"1572","Gesch. bedr. semi-bungalow","11","G"
"1573","Gesch. bedr. bungalow","11","G"
"1574","Gesch. bedr. villa/landhuis","11","G"
"1575","Gesch. bedr. woonboerderij","11","G"
"1576","Gesch. bedr. herenhuis","11","G"
"1577","Gesch. bedr. kwadrant-woning","11","G"
"1578","Gesch. bedr. drive-in-woning","11","G"
"1579","Gesch. bedr. patio-woning","11","G"
"1581","Bedrijfs Flatwoning","11","G"
"1582","Bedrijfs Maisonnette","11","G"
"1583","Bedrijfs Appartement","11","G"
"1584","Bedrijfs Portiekwoning","11","G"
"1585","Bedrijfs Duplex-woning","11","G"
"1586","Bedrijfs Penthouse","11","G"
"1587","Bedrijfs Benedenwoning","11","G"
"1588","Bedrijfs Bovenwoning","11","G"
"1589","Bedrijfs Etagewoning","11","G"
"1591","Woonwagen/-boot bedrijf","11","G"
"1592","Wnwgn/-bt bedr. semi-bungalow","11","G"
"1593","Wnwgn/-bt bedr. bungalow","11","G"
"1594","Wnwgn/-bt bedr. villa/landhuis","11","G"
"1595","Wnwgn/-bt bedr. woonboerderij","11","G"
"1596","Wnwgn/-bt bedr. herenhuis","11","G"
"1597","Wnwgn/-bt bedr. kwadrant","11","G"
"1598","Wnwgn/-bt bedr. drive-in","11","G"
"1599","Wnwgn/-bt bedr. patio","11","G"
"1600","Praktijkwoningen","11","G"
"1611","Vrijstaande praktijkwoning","11","G"
"1612","Vrijst. prakt. semi-bungalow","11","G"
"1613","Vrijst. prakt. bungalow","11","G"
"1614","Vrijst. prakt. villa/landhuis","11","G"
"1615","Vrijst. prakt. woonboerderij","11","G"
"1616","Vrijst. prakt. herenhuis","11","G"
"1617","Vrijst. prakt. kwadrant-woning","11","G"
"1618","Vrijst. prakt. drive-in-woning","11","G"
"1619","Vrijst. prakt. patio-woning","11","G"
"1621","2^1 kap praktijkwoning","11","G"
"1622","2^1 kap prakt. semi-bungalow","11","G"
"1623","2^1 kap prakt. bungalow","11","G"
"1624","2^1 kap prakt. villa/landhuis","11","G"
"1625","2^1 kap prakt. woonboerderij","11","G"
"1626","2^1 kap prakt. herenhuis","11","G"
"1627","2^1 kap prakt. kwadrant-woning","11","G"
"1628","2^1 kap prakt. drive-in-woning","11","G"
"1629","2^1 kap prakt. patio-woning","11","G"
"1631","Rij praktijkwoning","11","G"
"1632","Rij prakt. semi-bungalow","11","G"
"1633","Rij prakt. bungalow","11","G"
"1634","Rij prakt. villa/landhuis","11","G"
"1635","Rij prakt. woonboerderij","11","G"
"1636","Rij prakt. herenhuis","11","G"
"1637","Rij prakt. kwadrant-woning","11","G"
"1638","Rij prakt. drive-in-woning","11","G"
"1639","Rij prakt. patio-woning","11","G"
"1641","Hoek praktijkwoning","11","G"
"1642","Hoek prakt. semi-bungalow","11","G"
"1643","Hoek prakt. bungalow","11","G"
"1644","Hoek prakt. villa/landhuis","11","G"
"1645","Hoek prakt. woonboerderij","11","G"
"1646","Hoek prakt. herenhuis","11","G"
"1647","Hoek prakt. kwadrant-woning","11","G"
"1648","Hoek prakt. drive-in-woning","11","G"
"1649","Hoek prakt. patio-woning","11","G"
"1651","Tussen praktijkwoning","11","G"
"1652","Tussen prakt. semi-bungalow","11","G"
"1653","Tussen prakt. bungalow","11","G"
"1654","Tussen prakt. villa/landhuis","11","G"
"1655","Tussen prakt. woonboerderij","11","G"
"1656","Tussen prakt. herenhuis","11","G"
"1657","Tussen prakt. kwadrant-woning","11","G"
"1658","Tussen prakt. drive-in-woning","11","G"
"1659","Tussen prakt. patio-woning","11","G"
"1661","Eind praktijkwoning","11","G"
"1662","Eind prakt. semi-bungalow","11","G"
"1663","Eind prakt. bungalow","11","G"
"1664","Eind prakt. villa/landhuis","11","G"
"1665","Eind prakt. woonboerderij","11","G"
"1666","Eind prakt. herenhuis","11","G"
"1667","Eind prakt. kwadrant-woning","11","G"
"1668","Eind prakt. drive-in-woning","11","G"
"1669","Eind prakt. patio-woning","11","G"
"1671","Geschakelde praktijkwoning","11","G"
"1672","Gesch. prakt. semi-bungalow","11","G"
"1673","Gesch. prakt. bungalow","11","G"
"1674","Gesch. prakt. villa/landhuis","11","G"
"1675","Gesch. prakt. woonboerderij","11","G"
"1676","Gesch. prakt. herenhuis","11","G"
"1677","Gesch. prakt. kwadrant-woning","11","G"
"1678","Gesch. prakt. drive-in-woning","11","G"
"1679","Gesch. prakt. patio-woning","11","G"
"1681","Praktijk Flatwoning","11","G"
"1682","Praktijk Maisonnette","11","G"
"1683","Praktijk Appartement","11","G"
"1684","Praktijk Portiekwoning","11","G"
"1685","Praktijk Duplex-woning","11","G"
"1686","Praktijk Penthouse","11","G"
"1687","Praktijk Benedenwoning","11","G"
"1688","Praktijk Bovenwoning","11","G"
"1689","Praktijk Etagewoning","11","G"
"1691","Woonwagen/-boot praktijk","11","G"
"1692","Wnwgn/-bt prakt. semi-bungalow","11","G"
"1693","Wnwgn/-bt prakt. bungalow","11","G"
"1694","Wnwgn/-bt prakt.villa/landhuis","11","G"
"1695","Wnwgn/-bt prakt. woonboerderij","11","G"
"1696","Wnwgn/-bt prakt. herenhuis","11","G"
"1697","Wnwgn/-bt prakt. kwadrant","11","G"
"1698","Wnwgn/-bt prakt. drive-in","11","G"
"1699","Wnwgn/-bt prakt. patio","11","G"
"1700","Garagebox","10","G"
"1800","Specifieke woonobjecten","10","G"
"1900","Overige woonobjecten","12","G"
"2110","Detailhandel","21","G"
"2111","Winkel","21","G"
"2112","Groothandel","21","G"
"2113","Toonzaal","21","G"
"2114","Kiosk","21","G"
"2119","Overig","21","G"
"2120","Horeca","21","G"
"2121","Cafetaria/snackbar","21","G"
"2122","Café/bar/restaurant","21","G"
"2123","Bar/dancing","21","G"
"2124","Hotel/motel","21","G"
"2125","Pension/logiesgebouw","21","G"
"2140","Kantoren","21","G"
"2141","Kantoor","21","G"
"2142","Kantoor in bedrijfsverz.geb.","21","G"
"2143","Kantoor (solitair)","21","G"
"2144","Studiogebouw","21","G"
"2160","Laboratoria en praktijk","21","G"
"2161","Laboratorium","21","G"
"2162","Praktijkruimte","21","G"
"2170","Bedrijven","21","G"
"2171","Werkplaats/garage","21","G"
"2172","Autoshowroom + garage","21","G"
"2173","Onderhoud/reparatie","21","G"
"2174","Produktie (fabriek)","21","G"
"2175","Opslag/distributie","21","G"
"2211","Akkerbouwbedrijf","20","B"
"2212","Tuinbouwbedrijf","20","B"
"2213","Fruitkwekerij","20","B"
"2214","Champignonteeltbedrijf","20","B"
"2215","Witlofteeltbedrijf","20","B"
"2216","Boomkwekerij (incl. sierteelt)","20","B"
"2217","Bosbouwbedrijf","20","B"
"2218","Tuincentrum","20","B"
"2241","Proefboerderij","20","B"
"2242","Gemengd bedrijf","20","B"
"2243","Melkveebedrijf","20","B"
"2244","Kaasboerderij","20","B"
"2245","Veehouderij runderen","20","B"
"2246","Veehouderij varkens","20","B"
"2247","KI-station","20","B"
"2248","Veehouderij pluimvee","20","B"
"2261","Stoeterij/manege/fokkerij","20","B"
"2262","Viskwekerij","20","B"
"2263","Kinderboerderij","21","G"
"2264","Loonwerkbedrijf","20","B"
"2265","Pelsdierfokkerij","20","B"
"2266","Broederij","20","B"
"2299","Overige agrarische objecten","20","B"
"2310","Onderwijs","21","G"
"2311","Crèche/peuterzaal","21","G"
"2312","Basisschool","21","G"
"2313","Onderwijs; MAVO-HAVO-VWO","21","G"
"2314","Beroepsonderwijs LBO/MBO","21","G"
"2315","Hogeschool/universiteit","21","G"
"2316","Vrije-tijdsonderwijs","21","G"
"2317","Speciaal onderwijs","21","G"
"2318","Dagverblijf","21","G"
"2319","Overig onderwijs","21","G"
"2330","Medisch","21","G"
"2331","Ziekenhuis","21","G"
"2332","(Poli)Kliniek","21","G"
"2333","Medisch dagverblijf","21","G"
"2334","Psychiatrische ziekenhuis","21","G"
"2335","Revalidatiecenrum","21","G"
"2336","Verpleegtehuis","21","G"
"2337","Gezinsvervangend tehuis","21","G"
"2338","Verstandelijk gehandicapten","21","G"
"2339","Medisch overig","21","G"
"2350","Bijzondere woonfunctie","21","G"
"2351","Verzorgings/bejaardentehuis","21","G"
"2352","Kruisgebouw","21","G"
"2353","Praktijkruimte tandarts+fysio","21","G"
"2354","Kindertehuis","21","G"
"2355","Sociale werkvoorziening","21","G"
"2356","Gevangenis","21","G"
"2357","Klooster","21","G"
"2358","Kazerne","21","G"
"2359","overige bijzondere woonfunctie","21","G"
"2370","Gemeenschapsgebouw overig","21","G"
"2371","Gemeentehuis","21","G"
"2372","Gemeentewerken","21","G"
"2373","Politiebureau","21","G"
"2374","Gerechtsgebouw","21","G"
"2375","Brandweerkazerne","21","G"
"2376","Wijk/Buurtcentrum","21","G"
"2377","Begraafplaats","21","G"
"2378","Aula","21","G"
"2379","Crematorium","21","G"
"2410","Cultuur","21","G"
"2411","Schouwburg/concertgebouw","21","G"
"2412","Congresgebouw","21","G"
"2413","Museum","21","G"
"2414","Expositiehal/evenementenhal","21","G"
"2415","Bioscoop","21","G"
"2416","Bibliotheek","21","G"
"2417","Kasteel","21","G"
"2419","Overig Cultureel","21","G"
"2450","Religie","31","G"
"2451","Kerk","31","G"
"2452","Kapel","31","G"
"2453","Moskee","31","G"
"2459","Overige religieuze gebouwen","31","G"
"2510","Sport /recreatie","21","G"
"2511","Sporthal/Sportzaal","21","G"
"2512","Sportterrein","40","O"
"2513","Stadion","21","G"
"2514","Tribune","21","G"
"2515","Clubhuis","21","G"
"2516","Kleedgebouw/toiletten","21","G"
"2517","Kantine","21","G"
"2518","Recreatie/sportcentrum","21","G"
"2519","Tennisbaan","40","O"
"2521","Zwembad","21","G"
"2522","Sauna","21","G"
"2523","Jachthaven","21","G"
"2524","Botenhuis","21","G"
"2525","Camping","21","G"
"2526","Bungalowpark","21","G"
"2527","Pretpark","21","G"
"2528","Dierentuin","21","G"
"2610","Energie en water","21","G"
"2611","Waterleidingstation","21","G"
"2612","Reinwaterkelder","21","G"
"2613","Drinkwaterzuiverings install.","21","G"
"2614","Watertoren","21","G"
"2615","Waterverdediging/-Kering","31","G"
"2616","Rioolwaterzuiverings install.","31","G"
"2617","Gemaal","31","G"
"2618","Gasdistributiestation","21","G"
"2619","Stroomdistributiestation","21","G"
"2621","Trafo","21","G"
"2622","Hoogspanningsmast","21","G"
"2623","Electriciteitscentrale","21","G"
"2624","Windmolen","21","G"
"2629","Overig energie en water","21","G"
"2630","Transport","21","G"
"2631","Luchthaven/Vliegbasis /-veld","21","G"
"2632","Zee/binnenhaven","21","G"
"2633","Vuurtoren","21","G"
"2634","NS-Station","21","G"
"2635","Busstation","21","G"
"2636","Parkeergarage","21","G"
"2637",".","21","G"
"2638","Benzinestation","21","G"
"2639","Overig transport","21","G"
"2660","Communicatie","21","G"
"2661","Postkantoor","21","G"
"2662","Postkantoor (Specifiek)","21","G"
"2663","Postsorteerbedrijf","21","G"
"2664","Telefooncentrale","21","G"
"2665","Zendmast","21","G"
"2666","Televisiemast","21","G"
"2667","Overig communicatie","21","G"
"2690","Overige nutsvoorzieningen","21","G"
"2691","Uitkijkpost","21","G"
"2692","Schuilkelder","21","G"
"2693","Bunker","21","G"
"2800","Specifieke gemeentelijke obj.","21","G"
"2999","Overige Onroerende niet-woning","21","G"
"3110","Detailhandel","30","G"
"3111","Winkel","30","G"
"3112","Groothandel","30","G"
"3113","Toonzaal","30","G"
"3114","Kiosk","30","G"
"3119","Overig","30","G"
"3120","Horeca","30","G"
"3121","Cafetaria/snackbar","30","G"
"3122","Café/bar/restaurant","30","G"
"3123","Bar/dancing","30","G"
"3124","Hotel/motel","30","G"
"3125","Pension/logiesgebouw","30","G"
"3140","Kantoren","30","G"
"3141","Kantoor","30","G"
"3142","Kantoor in bedrijfsverz.geb.","30","G"
"3143","Kantoor (solitair)","30","G"
"3144","Studiogebouw","30","G"
"3161","Laboratorium","30","G"
"3162","Praktijkruimte","30","G"
"3171","Werkplaats/garage","30","G"
"3172","Autoshowroom + garage","30","G"
"3173","Onderhoud/reparatie","30","G"
"3174","Produktie (fabriek)","30","G"
"3175","Opslag/distributie","30","G"
"3176","Atelier/werkruimte","30","G"
"3211","Akkerbouwbedrijf","30","G"
"3212","Tuinbouwbedrijf","30","G"
"3213","Fruitkwekerij","30","G"
"3214","Champignonteeltbedrijf","30","G"
"3215","Witlofteeltbedrijf","30","G"
"3216","Boomkwekerij (incl. sierteelt)","30","G"
"3217","Bosbouwbedrijf","30","G"
"3218","Tuincentrum","30","G"
"3241","Proefboerderij","30","G"
"3242","Gemengd bedrijf","30","G"
"3243","Melkveebedrijf","30","G"
"3244","Kaasboerderij","30","G"
"3245","Veehouderij runderen","30","G"
"3246","Veehouderij varkens","30","G"
"3247","KI-station","30","G"
"3248","Veehouderij pluimvee","30","G"
"3261","Stoeterij/manege/fokkerij","30","G"
"3262","Viskwekerij","30","G"
"3263","Kinderboerderij","30","G"
"3264","Loonwerkbedrijf","30","G"
"3265","Pelsdierfokkerij","30","G"
"3266","Broederij","30","G"
"3299","Overige agrarische objecten","30","G"
"3311","Crèche/peuterzaal","30","G"
"3312","Basisschool","30","G"
"3313","Algem.Onderwijs; MAVO-HAVO-VWO","30","G"
"3314","Beroepsonderwijs LBO/MBO","30","G"
"3315","Hogeschool/universiteit","30","G"
"3316","Vrije-tijdsonderwijs","30","G"
"3317","Speciaal onderwijs","30","G"
"3318","Dagverblijf","30","G"
"3319","Overig onderwijs","30","G"
"3331","Ziekenhuis","30","G"
"3332","(Poli)Kliniek","30","G"
"3333","Medisch dagverblijf","30","G"
"3334","Psychiatrische ziekenhuis","30","G"
"3335","Revalidatiecenrum","30","G"
"3336","Verpleegtehuis","30","G"
"3337","Gezinsvervangend tehuis","30","G"
"3338","Verstandelijk gehandicapten","30","G"
"3339","Medisch overig","30","G"
"3351","Verzorgings/bejaardentehuis","30","G"
"3352","Kruisgebouw","30","G"
"3353","Praktijkruimte tandarts+fysio","30","G"
"3354","Kindertehuis","30","G"
"3355","Sociale werkvoorziening","30","G"
"3356","Gevangenis","30","G"
"3357","Klooster","30","G"
"3358","Kazerne","30","G"
"3359","Overige bijzondere woonfunctie","30","G"
"3371","Gemeentehuis","30","G"
"3372","Gemeentewerken","30","G"
"3373","Politiegebouw","30","G"
"3374","Gerechtsgebouw","30","G"
"3375","Brandweerkazerne","30","G"
"3376","Wijk/Buurtcentrum","30","G"
"3377","Begraafplaats","31","G"
"3378","Aula","30","G"
"3379","Crematorium","30","G"
"3411","Schouwburg/concertgebouw","30","G"
"3412","Congresgebouw","30","G"
"3413","Museum","30","G"
"3414","Expositiehal/evenementenhal","30","G"
"3415","Bioscoop","30","G"
"3416","Bibliotheek","30","G"
"3417","Kasteel","30","G"
"3419","Overig Cultureel","30","G"
"3451","Kerk","31","G"
"3452","Kapel","31","G"
"3453","Moskee","31","G"
"3459","Overige religieuze gebouwen","31","G"
"3511","Sporthal/Sportzaal","30","G"
"3512","Sportterrein","40","O"
"3513","Stadion","30","G"
"3514","Tribune","30","G"
"3515","Clubhuis","30","G"
"3516","Kleedgebouw/toiletten","30","G"
"3517","Kantine","30","G"
"3518","Recreatie/sportcentrum","30","G"
"3519","Tennisbaan","30","G"
"3521","Zwembad","30","G"
"3522","Sauna","30","G"
"3523","Jachthaven","30","G"
"3524","Botenhuis","30","G"
"3525","Camping","30","G"
"3526","Bungalowpark","30","G"
"3527","Pretpark","30","G"
"3528","Dierentuin","30","G"
"3611","Waterleidingstation","30","G"
"3612","Reinwaterkelder","30","G"
"3613","Drinkwaterzuiveringsinstall.","30","G"
"3614","Watertoren","30","G"
"3615","Waterverdediging/-kering","31","G"
"3616","Rioolwaterzuiveringsinstall.","31","G"
"3617","Gemaal","31","G"
"3618","Gasdistributiestation","30","G"
"3619","Stroomdistributiestation","30","G"
"3621","Trafo","30","G"
"3622","Hoogspanningsmast","30","G"
"3623","Electriciteitscentrale","30","G"
"3624","Windmolen","30","G"
"3629","Overig energie en water","30","G"
"3631","Luchthaven/Vliegbasis/-veld","30","G"
"3632","Zee/binnenhaven","30","G"
"3633","Vuurtoren","30","G"
"3634","NS-Station","30","G"
"3635","Busstation","30","G"
"3636","Parkeerplaats in garage","30","G"
"3638","Benzinestation","30","G"
"3639","Overig transport","30","G"
"3645","Metrostation","30","G"
"3646","Metrostation (baanvak/rails)","30","G"
"3647","Metrostation (gebouwen)","30","G"
"3661","Postkantoor","30","G"
"3662","Postkantoor (specifiek)","30","G"
"3663","Postsorteerbedrijf","30","G"
"3664","Telefooncentrale","30","G"
"3665","Zendmast","30","G"
"3666","Televisiemast","30","G"
"3667","Overig communicatie","30","G"
"3691","Uitkijkpost","30","G"
"3692","Schuilkelder","30","G"
"3693","Bunker","30","G"
"4100","Ongebouwd","40","O"
"4111","Bouwterrein","40","O"
"4112","Stortplaats","40","O"
"4113","Volkstuin","40","O"
"4114","Speeltuin","40","O"
"4115","Parkeerterrein/-plaats","40","O"
"4116","Berm","80","O"
"4117","Sloot","80","O"
"4118","Fietspad","80","O"
"4199","Overig ongebouwd","80","O"
"5100","Woning in aanbouw","10","G"
"5200","Niet woning met woonged. i.a.","21","G"
"5300","Niet woning znd. woonged. i.a.","30","G"
"5900","Overige objecten in aanbouw","30","G"
"9100","Sluimerend WOZ-object","90","G"
"9222","samengevoegd object","30","G"
"9223","gesplitst object","30","G"
"9998","vergund, later verwerken","40","O"
"9999","Nog te bepalen","0","O"
